<?xml version="1.0" encoding="utf-8"?>
<!-- Generator: Adobe Illustrator 16.0.0, SVG Export Plug-In . SVG Version: 6.00 Build 0)  -->
<!DOCTYPE svg PUBLIC "-//W3C//DTD SVG 1.1//EN" "http://www.w3.org/Graphics/SVG/1.1/DTD/svg11.dtd">
<svg version="1.1" id="Capa_1" xmlns="http://www.w3.org/2000/svg" xmlns:xlink="http://www.w3.org/1999/xlink" x="0px" y="0px"
	 width="512px" height="512px" viewBox="0 0 512 512" enable-background="new 0 0 512 512" xml:space="preserve">
<g id="XMLID_26_">
	<g>
		<path fill="#10273C" d="M256.004,244.912c6.12,0,11.088,4.968,11.088,11.088c0,6.121-4.968,11.088-11.088,11.088
			c-6.121,0-11.088-4.967-11.088-11.088C244.916,249.88,249.883,244.912,256.004,244.912z"/>
		<path fill="#CED0D2" d="M277.186,216.527c-2.998,9.864-10.431,16.854-19.124,16.854h-2.058h-2.059
			c-8.692,0-16.126-6.989-19.124-16.854c6.298-3.389,13.519-5.322,21.183-5.322S270.888,213.139,277.186,216.527z"/>
		<path fill="#92A2A3" d="M506.004,256c0,138.04-111.907,250-250,250s-250-111.96-250-250c0-138.057,111.907-250,250-250
			S506.004,117.943,506.004,256z M256.004,471.104c118.809,0,215.104-96.331,215.104-215.104
			c0-118.791-96.296-215.104-215.104-215.104S40.899,137.209,40.899,256C40.899,374.773,137.195,471.104,256.004,471.104z"/>
		<path fill="#AAB2B3" d="M256.004,458.101c111.623,0,202.101-90.512,202.101-202.101c0-111.605-90.478-202.101-202.101-202.101
			C144.38,53.899,53.903,144.395,53.903,256C53.903,367.589,144.38,458.101,256.004,458.101z M256.004,40.896
			c118.809,0,215.104,96.313,215.104,215.104c0,118.773-96.296,215.104-215.104,215.104S40.899,374.773,40.899,256
			C40.899,137.209,137.195,40.896,256.004,40.896z"/>
		<path fill="#BDC2C5" d="M405.947,233.381c18.184,0,32.926,9.208,32.926,20.562v4.116c0,11.354-14.742,20.561-32.926,20.561H311.55
			c-5.624,0-10.929-0.887-15.559-2.448c3.087-6.066,4.808-12.915,4.808-20.171s-1.721-14.104-4.808-20.171
			c4.63-1.561,9.935-2.448,15.559-2.448H405.947z"/>
		<path fill="#10273C" d="M256.004,53.899c111.623,0,202.101,90.495,202.101,202.101c0,111.589-90.478,202.101-202.101,202.101
			C144.38,458.101,53.903,367.589,53.903,256C53.903,144.395,144.38,53.899,256.004,53.899z M256.004,59.222
			C147.308,59.222,59.226,147.339,59.226,256c0,108.644,88.082,196.778,196.778,196.778S452.782,364.644,452.782,256
			C452.782,147.339,364.7,59.222,256.004,59.222z"/>
		<path fill="#33475C" d="M256.004,59.222c108.696,0,196.778,88.117,196.778,196.778c0,108.644-88.082,196.778-196.778,196.778
			S59.226,364.644,59.226,256C59.226,147.339,147.308,59.222,256.004,59.222z M278.623,206.771v-76.285
			c0-14.688-9.207-26.61-20.562-26.61h-4.116c-11.354,0-20.561,11.922-20.561,26.61v76.285c0,3.441,0.515,6.741,1.437,9.757
			c-14.051,7.558-23.612,22.406-23.612,39.473c0,8.533,2.395,16.517,6.546,23.312l-81.092,78.893l12.135,11.797l80.347-78.165
			c7.486,5.624,16.782,8.959,26.859,8.959c17.492,0,32.625-10.023,39.987-24.624c4.63,1.562,9.935,2.448,15.559,2.448h94.397
			c18.184,0,32.926-9.207,32.926-20.561v-4.116c0-11.354-14.742-20.562-32.926-20.562H311.55c-5.624,0-10.929,0.888-15.559,2.448
			c-4.134-8.214-10.716-14.955-18.806-19.302C278.108,213.512,278.623,210.212,278.623,206.771z"/>
		<path fill="#BDC2C5" d="M278.623,130.485v76.285c0,3.441-0.515,6.741-1.438,9.757c-6.298-3.389-13.518-5.322-21.182-5.322
			s-14.885,1.934-21.183,5.322c-0.922-3.016-1.437-6.315-1.437-9.757v-76.285c0-14.688,9.207-26.61,20.561-26.61h4.116
			C269.416,103.875,278.623,115.797,278.623,130.485z"/>
		<path fill="#CED0D2" d="M278.623,253.942V256c0-12.489-10.13-22.619-22.619-22.619h2.058c8.693,0,16.126-6.989,19.124-16.854
			c8.09,4.347,14.672,11.088,18.806,19.302C285.648,239.289,278.623,246.101,278.623,253.942z"/>
		<path fill="#CED0D2" d="M278.623,258.059V256v-2.058c0-7.842,7.025-14.653,17.368-18.113c3.087,6.067,4.808,12.915,4.808,20.171
			s-1.721,14.104-4.808,20.171C285.648,272.712,278.623,265.899,278.623,258.059z"/>
		<path fill="#CED0D2" d="M234.821,216.527c2.998,9.864,10.432,16.854,19.124,16.854h2.059c-12.489,0-22.619,10.13-22.619,22.619
			s10.13,22.619,22.619,22.619s22.619-10.13,22.619-22.619v2.059c0,7.841,7.025,14.653,17.368,18.112
			c-7.362,14.601-22.495,24.624-39.987,24.624c-10.077,0-19.373-3.335-26.859-8.959l5.074-4.932l-12.135-11.798l-4.329,4.205
			c-4.151-6.795-6.546-14.778-6.546-23.312C211.209,238.934,220.771,224.085,234.821,216.527z"/>
		<path fill="#CED0D2" d="M234.219,286.904l-5.074,4.932c-4.542-3.388-8.427-7.646-11.39-12.524l4.329-4.205L234.219,286.904z"/>
		<path fill="#64717D" d="M256.004,233.381c12.489,0,22.619,10.13,22.619,22.619s-10.13,22.619-22.619,22.619
			s-22.619-10.13-22.619-22.619S243.515,233.381,256.004,233.381z M267.092,256c0-6.12-4.968-11.088-11.088-11.088
			c-6.121,0-11.088,4.968-11.088,11.088c0,6.121,4.967,11.088,11.088,11.088C262.124,267.088,267.092,262.121,267.092,256z"/>
		<path fill="#C43C28" d="M229.145,291.836l-80.347,78.165l-12.135-11.797l81.092-78.893
			C220.718,284.19,224.603,288.448,229.145,291.836z"/>
	</g>
</g>
</svg>
