<?xml version="1.0" encoding="utf-8"?>
<!-- Generator: Adobe Illustrator 16.0.0, SVG Export Plug-In . SVG Version: 6.00 Build 0)  -->
<!DOCTYPE svg PUBLIC "-//W3C//DTD SVG 1.1//EN" "http://www.w3.org/Graphics/SVG/1.1/DTD/svg11.dtd">
<svg version="1.1" id="Capa_1" xmlns="http://www.w3.org/2000/svg" xmlns:xlink="http://www.w3.org/1999/xlink" x="0px" y="0px"
	 width="512px" height="512px" viewBox="0 0 512 512" enable-background="new 0 0 512 512" xml:space="preserve">
<g>
	<g id="XMLID_25_">
		<g>
			<polygon fill="#65291A" points="506,443.107 506,460.402 6,460.402 6,443.107 30.371,443.107 482.415,443.107 			"/>
			<polygon fill="#AF733C" points="482.415,402.619 482.415,443.107 30.371,443.107 30.371,355.843 190.749,357.022 
				190.749,402.619 222.981,402.619 232.416,402.619 			"/>
			<path fill="#609991" d="M482.415,326.755v75.864h-250V303.17H458.83C471.85,303.17,482.415,313.736,482.415,326.755z"/>
			<path fill="#5E9890" d="M482.415,306.314v20.44c0-13.019-10.565-23.585-23.585-23.585H232.416v-16.51
				c71.541,0,211.556,0,226.415,0C478.878,286.66,482.415,306.314,482.415,306.314z"/>
			<path fill="#B1CFB4" d="M277.62,51.598c42.768,0,77.437,34.67,77.437,77.437c0,42.768-34.669,77.438-77.437,77.438
				c-11.525,0-22.453-2.531-32.28-7.06l-61.667,14.921l20.566-60.581c-2.61-7.768-4.057-16.069-4.057-24.718
				C200.183,86.268,234.853,51.598,277.62,51.598z M311.409,160.151c1.714-1.321,2.516-3.145,2.421-5.456
				c-0.142-3.113-2.312-5.126-6.51-6.038c-1.792-0.377-5.173-0.566-10.188-0.566c-4.544,0-10.645,0.174-18.302,0.52
				c-9.764,0.424-15.928,0.66-18.475,0.738l0.205-0.267c6.195-8.365,12.39-16.698,18.585-25.031
				c8.082-10.661,15.079-18.192,20.99-22.563c2.799-1.855,5.157-3.364,7.076-4.56c4.623-3.224,6.934-6.273,6.934-9.183
				c0-4.544-5.22-6.823-15.645-6.823c-2.689,0-6.73,0.078-12.091,0.204c-5.377,0.142-9.403,0.22-12.091,0.22
				c-2.421,0-6.022-0.157-10.817-0.456c-4.796-0.282-8.396-0.439-10.802-0.439c-7.107,0-10.66,2.39-10.66,7.186
				c0,2.248,0.802,4.024,2.421,5.361c1.431,1.179,3.176,1.776,5.251,1.776c0.377,0,0.943-0.031,1.667-0.078
				c0.739-0.048,1.305-0.079,1.683-0.079h21.195c2.877,0,7.044-0.188,12.5-0.582c-5.991,5.456-12.406,12.595-19.261,21.416
				c-5.771,7.625-11.525,15.267-17.264,22.924c-3.255,4.198-5.236,6.84-5.928,7.925c-2.201,3.459-3.302,6.462-3.302,8.978
				c0,2.28,0.817,4.041,2.453,5.299c1.478,1.148,3.349,1.729,5.613,1.729c5.33,0,13.302-0.125,23.962-0.393
				c10.645-0.268,18.632-0.394,23.947-0.394c1.022,0,2.547,0.063,4.576,0.189c2.028,0.109,3.538,0.173,4.56,0.173
				C308.17,161.881,309.947,161.314,311.409,160.151z"/>
			<path fill="#397378" d="M313.831,154.695c0.094,2.312-0.708,4.135-2.421,5.456c-1.462,1.163-3.239,1.729-5.299,1.729
				c-1.022,0-2.531-0.063-4.56-0.173c-2.028-0.126-3.554-0.189-4.576-0.189c-5.314,0-13.302,0.126-23.947,0.394
				c-10.66,0.268-18.632,0.393-23.962,0.393c-2.264,0-4.135-0.581-5.613-1.729c-1.635-1.258-2.453-3.019-2.453-5.299
				c0-2.516,1.101-5.519,3.302-8.978c0.692-1.085,2.673-3.727,5.928-7.925c5.739-7.657,11.494-15.299,17.264-22.924
				c6.855-8.821,13.27-15.96,19.261-21.416c-5.456,0.394-9.623,0.582-12.5,0.582H253.06c-0.377,0-0.943,0.031-1.683,0.079
				c-0.723,0.047-1.289,0.078-1.667,0.078c-2.076,0-3.821-0.598-5.251-1.776c-1.62-1.337-2.421-3.113-2.421-5.361
				c0-4.796,3.553-7.186,10.66-7.186c2.406,0,6.006,0.157,10.802,0.439c4.795,0.299,8.396,0.456,10.817,0.456
				c2.688,0,6.714-0.078,12.091-0.22c5.361-0.126,9.402-0.204,12.091-0.204c10.424,0,15.645,2.279,15.645,6.823
				c0,2.909-2.312,5.959-6.934,9.183c-1.918,1.195-4.277,2.704-7.076,4.56c-5.912,4.371-12.909,11.902-20.99,22.563
				c-6.195,8.333-12.39,16.666-18.585,25.031l-0.205,0.267c2.547-0.078,8.711-0.314,18.475-0.738
				c7.657-0.346,13.758-0.52,18.302-0.52c5.016,0,8.396,0.189,10.188,0.566C311.519,149.569,313.689,151.582,313.831,154.695z"/>
			<rect x="222.981" y="303.17" fill="#8FAFA5" width="9.434" height="99.449"/>
			<path fill="#8FAFA5" d="M232.416,286.66v16.51h-9.434v-16.51C225.969,286.66,229.113,286.66,232.416,286.66z"/>
			<polygon fill="#99C4B8" points="222.981,303.17 222.981,402.619 190.749,402.619 190.749,357.022 190.749,303.17 			"/>
			<path fill="#99C4B8" d="M222.981,286.66v16.51h-32.233v-14.544v-1.966C190.749,286.66,203.296,286.66,222.981,286.66z"/>
			<path fill="#83B19F" d="M102.903,307.667c7.232,15.896,23.255,26.949,41.855,26.949c20.314,0,37.547-13.176,43.616-31.446h2.374
				v53.853l-160.377-1.18v-29.088c0-13.019,10.566-23.585,23.585-23.585h47.186C101.629,304.711,102.227,306.204,102.903,307.667z"
				/>
			<path fill="#E4B058" d="M190.749,288.626c0,5.078-0.833,9.969-2.374,14.544H163.94c9.906-8.601,16.116-20.959,16.116-34.686
				c0-3.727-0.456-7.358-1.32-10.833C186.189,265.827,190.749,276.708,190.749,288.626z"/>
			<path fill="#83B19F" d="M163.94,303.17h24.434c-6.069,18.271-23.302,31.446-43.616,31.446c-18.601,0-34.623-11.054-41.855-26.949
				c7.877,4.969,17.327,7.861,27.484,7.861C143.327,315.528,155.104,310.843,163.94,303.17z"/>
			<path fill="#EBC575" d="M178.736,257.651c0.865,3.475,1.32,7.106,1.32,10.833c0,13.727-6.21,26.085-16.116,34.686h-62.799
				c-1.541-4.575-2.374-9.466-2.374-14.544c0-25.394,20.598-45.99,45.991-45.99C158.217,242.636,170.34,248.422,178.736,257.651z"/>
			<path fill="#83B19F" d="M101.142,303.17h62.799c-8.836,7.673-20.613,12.358-33.553,12.358c-10.157,0-19.607-2.893-27.484-7.861
				C102.227,306.204,101.629,304.711,101.142,303.17z"/>
		</g>
	</g>
</g>
</svg>
