<?xml version="1.0" encoding="utf-8"?>
<!-- Generator: Adobe Illustrator 16.0.0, SVG Export Plug-In . SVG Version: 6.00 Build 0)  -->
<!DOCTYPE svg PUBLIC "-//W3C//DTD SVG 1.1//EN" "http://www.w3.org/Graphics/SVG/1.1/DTD/svg11.dtd">
<svg version="1.1" id="Capa_1" xmlns="http://www.w3.org/2000/svg" xmlns:xlink="http://www.w3.org/1999/xlink" x="0px" y="0px"
	 width="512px" height="512px" viewBox="0 0 512 512" enable-background="new 0 0 512 512" xml:space="preserve">
<g>
	<g>
		<path fill="#F6E7CC" d="M147.229,240.974c29.877-20.859,53.06-46.286,44.422-78.525c-0.766-2.856-1.764-5.52-2.969-8
			c-5.73-11.804-16.154-19.534-28.629-24.588c-19.934-8.094-45.094-9.364-64.659-9.557c-9.144-0.089-11.894,4.271-11.894,14.702
			v143.705C102.323,267.845,126.404,255.521,147.229,240.974L147.229,240.974z M140.072,192.544
			c-8.287,0-15.002-6.715-15.002-15.001s6.715-15,15.002-15c8.283,0,14.999,6.714,14.999,15S148.355,192.544,140.072,192.544z"/>
		<circle fill="#CC6FA4" cx="140.068" cy="177.539" r="15"/>
		<g>
			<path fill="#F6E7CC" d="M191.65,162.448c8.638,32.239-14.546,57.666-44.423,78.53c14.076,52.522,20.628,57.019,25.495,131.824
				c26.474,15.282,48.487,21.631,83.276,21.631c18.852,0,33.954-1.864,48.049-6.005c11.912-3.501,23.102-8.624,35.227-15.626
				c4.866-74.804,11.422-79.3,25.496-131.829c-29.879-20.859-53.06-46.283-44.424-78.525c4.406-16.437,16.504-26.471,31.6-32.588
				c-18.752-8.449-49.087-12.292-95.947-12.292c-46.862,0-77.196,3.843-95.947,12.292c12.474,5.054,22.897,12.784,28.63,24.588
				C189.887,156.929,190.885,159.592,191.65,162.448z"/>
			<path fill="#F6E7CC" d="M364.769,240.979L364.769,240.979L364.769,240.979z M320.349,162.448
				c-8.637,32.239,14.543,57.666,44.422,78.528c20.827,14.544,44.906,26.868,63.729,37.736V135.005
				c0-10.431-2.752-14.79-11.894-14.701c-19.564,0.192-44.726,1.461-64.66,9.549C336.853,135.978,324.754,146.009,320.349,162.448
				L320.349,162.448z M372.307,192.544c-8.284,0-14.999-6.715-14.999-15.001s6.715-15,14.999-15c8.286,0,15.001,6.714,15.001,15
				S380.593,192.544,372.307,192.544z"/>
		</g>
		<g>
			<circle fill="#CC6FA4" cx="372.31" cy="177.54" r="14.999"/>
			<path fill="#CC6FA4" d="M364.771,240.974L364.771,240.974L364.771,240.974z M428.499,278.711
				c-18.824-10.867-42.902-23.19-63.728-37.737c-14.074,52.529-20.629,57.025-25.495,131.829
				C381.997,372.8,428.499,278.711,428.499,278.711z"/>
			<path fill="#CC6FA4" d="M147.229,240.974L147.229,240.974L147.229,240.974z M172.724,372.801
				c-4.867-74.802-11.42-79.3-25.495-131.827c-20.825,14.547-44.905,26.87-63.729,37.737
				C83.5,278.711,130.003,372.8,172.724,372.801z"/>
		</g>
	</g>
	<g>
		<path fill="#ABA392" d="M435.72,280.731c0.006-0.025,0.018-0.05,0.023-0.076c0.08-0.297,0.139-0.598,0.181-0.898
			c0.007-0.056,0.012-0.11,0.018-0.166c0.031-0.255,0.047-0.508,0.051-0.762c0-0.041,0.008-0.078,0.008-0.119V135.005
			c0-5.492,0-22.203-19.121-22.203l-0.348,0.004c-17.305,0.168-39.687,1.144-59.331,7.227c-1.758,0.545-3.462,1.125-5.118,1.734
			c-19.919-8.076-49.81-11.7-96.081-11.7s-76.167,3.624-96.082,11.701c-1.659-0.61-3.361-1.19-5.119-1.735
			c-19.645-6.083-42.028-7.059-59.332-7.227l-0.348-0.004C76,112.802,76,129.513,76,135.005v143.706c0,0.042,0.008,0.079,0.009,0.12
			c0.003,0.252,0.021,0.507,0.049,0.762c0.008,0.054,0.011,0.108,0.019,0.166c0.043,0.301,0.102,0.6,0.181,0.896
			c0.006,0.026,0.017,0.051,0.024,0.076c0.071,0.255,0.157,0.506,0.258,0.756c0.034,0.09,0.075,0.174,0.111,0.261
			c0.043,0.097,0.078,0.194,0.125,0.287c0.485,0.983,12.101,24.354,29.233,48.11c23.18,32.138,44.906,48.973,64.616,50.093
			c27.845,15.79,51.19,21.695,85.374,21.695c19.072,0,34.768-1.841,49.755-6.206c0.293-0.069,0.581-0.15,0.861-0.252
			c11.567-3.45,22.745-8.424,34.757-15.237c19.71-1.12,41.437-17.955,64.617-50.093c17.135-23.753,28.746-47.125,29.233-48.11
			c0.046-0.093,0.081-0.19,0.124-0.287c0.038-0.087,0.076-0.171,0.111-0.261C435.562,281.237,435.647,280.986,435.72,280.731z
			 M416.678,127.805h0.201c2.48,0,3.142,0.461,3.142,0.461c0.01,0.01,0.98,1.082,0.98,6.74v130.847
			c-1.607-0.895-3.24-1.805-4.898-2.729c-15.333-8.53-32.047-17.836-46.926-28.216c-0.063-0.043-0.125-0.087-0.189-0.131
			c-7.015-4.903-13.623-10.046-19.473-15.46c-19.754-18.282-26.924-36.248-21.92-54.925c3.353-12.517,12.304-21.604,27.28-27.639
			c0.06-0.025,0.122-0.043,0.181-0.069c2.079-0.831,4.27-1.605,6.582-2.321C379.425,128.855,400.395,127.965,416.678,127.805z
			 M256.001,125.067c34.286,0,59.452,2.076,77.319,6.455c-10.266,7.447-17.04,17.136-20.216,28.985
			c-9.306,34.735,13.356,61.757,43.074,83.496c-2.669,9.722-5.061,17.759-7.204,24.962c-8.149,27.375-13.145,44.152-16.913,99.303
			c-7.182,3.981-13.992,7.217-20.798,9.814c-0.059-13.531,0.936-28.607,1.634-37.457c0.326-4.13-2.756-7.743-6.886-8.068
			c-4.128-0.327-7.741,2.757-8.068,6.886c-0.799,10.098-1.967,28.081-1.618,43.31c-12.053,2.948-24.872,4.18-40.324,4.18
			c-30.911,0-51.29-4.93-76.062-18.664c-3.768-55.152-8.765-71.934-16.915-99.309c-2.146-7.202-4.535-15.234-7.205-24.953
			c29.719-21.74,52.383-48.761,43.075-83.497c-0.02-0.076-0.044-0.15-0.064-0.227c10.498-1.464,25.474-2.608,39.462-2.929
			c4.141-0.094,7.423-3.528,7.328-7.67s-3.559-7.398-7.671-7.326c-16.57,0.379-34.082,1.838-45.372,3.707
			c-3.534-5.534-8.172-10.388-13.897-14.54C196.548,127.144,221.712,125.067,256.001,125.067z M91,135.005
			c0-5.657,0.97-6.73,0.974-6.737c0.005-0.002,0.668-0.465,3.146-0.465l0.201,0.002c16.282,0.16,37.254,1.049,55.041,6.558
			c2.313,0.717,4.505,1.49,6.583,2.322c0.055,0.024,0.112,0.041,0.166,0.065c14.984,6.033,23.939,15.118,27.295,27.641
			c5.005,18.677-2.166,36.643-21.919,54.926c-5.831,5.396-12.413,10.522-19.402,15.411c-0.045,0.028-0.087,0.062-0.131,0.09
			c-14.912,10.416-31.679,19.751-47.055,28.307c-1.658,0.924-3.292,1.832-4.899,2.729V135.005L91,135.005z M93.459,281.674
			c3.134-1.765,6.37-3.571,9.736-5.442c12.558-6.989,26.367-14.676,39.552-23.242c2.152,7.658,4.111,14.241,5.899,20.25
			c7.844,26.341,12.366,41.534,15.949,90.7C137.519,355.284,107.04,307.21,93.459,281.674z M393.824,321.368
			c-16.862,23.381-33.003,38.082-46.417,42.51c3.582-49.113,8.104-64.303,15.943-90.632c1.789-6.01,3.748-12.595,5.9-20.257
			c13.187,8.566,26.997,16.255,39.556,23.243c3.349,1.864,6.575,3.662,9.698,5.421C413.976,290.066,405.071,305.773,393.824,321.368
			z"/>
		<path fill="#ABA392" d="M140.073,200.045c12.406,0,22.501-10.095,22.501-22.502s-10.095-22.502-22.501-22.502
			c-12.409,0-22.501,10.095-22.501,22.502S127.664,200.045,140.073,200.045z M140.073,170.042c4.134,0,7.498,3.365,7.498,7.501
			s-3.364,7.501-7.498,7.501c-4.137,0-7.5-3.365-7.5-7.501S135.937,170.042,140.073,170.042z"/>
		<path fill="#ABA392" d="M349.807,177.543c0,12.407,10.095,22.502,22.502,22.502c12.408,0,22.501-10.095,22.501-22.502
			c0-12.406-10.093-22.501-22.501-22.501C359.901,155.042,349.807,165.137,349.807,177.543z M372.309,170.042
			c4.136,0,7.5,3.365,7.5,7.501s-3.364,7.501-7.5,7.501c-4.137,0-7.499-3.365-7.499-7.501S368.172,170.042,372.309,170.042z"/>
		<path fill="#ABA392" d="M259.428,157.604c0.034,0,0.127,0.006,0.187,0.008c0.148,0.01,0.299,0.014,0.449,0.014
			c3.913,0,7.211-3.035,7.478-6.999c0.276-4.133-2.849-7.709-6.982-7.985l-0.187-0.011c-4.134-0.257-7.681,2.877-7.948,7.005
			C252.158,153.769,255.294,157.337,259.428,157.604z"/>
		<path fill="#ABA392" d="M306.54,326.595c0.322,0.042,0.639,0.062,0.952,0.062c3.722,0,6.952-2.769,7.434-6.556l0.08-0.629
			c0.546-4.107-2.342-7.876-6.449-8.423c-4.104-0.54-7.878,2.343-8.421,6.45l-0.093,0.711
			C299.522,322.321,302.431,326.075,306.54,326.595z"/>
	</g>
</g>
<path fill="#C12E4D" d="M432.776,79.224C385.558,32.004,322.777,6,256,6S126.442,32.004,79.224,79.224
	C32.004,126.442,6,189.223,6,256s26.004,129.558,73.224,176.776C126.442,479.995,189.223,506,256,506s129.558-26.005,176.776-73.224
	C479.996,385.558,506,322.777,506,256S479.996,126.442,432.776,79.224z M47.284,256c0-115.086,93.629-208.716,208.716-208.716
	c46.794,0,90.038,15.479,124.887,41.584L107.785,402.799C70.407,365.063,47.284,313.185,47.284,256z M256,464.716
	c-43.074,0-83.141-13.118-116.419-35.566l271.76-312.387c33.167,36.965,53.375,85.783,53.375,139.237
	C464.716,371.086,371.086,464.716,256,464.716z"/>
</svg>
