<?xml version="1.0" encoding="utf-8"?>
<!-- Generator: Adobe Illustrator 16.0.0, SVG Export Plug-In . SVG Version: 6.00 Build 0)  -->
<!DOCTYPE svg PUBLIC "-//W3C//DTD SVG 1.1//EN" "http://www.w3.org/Graphics/SVG/1.1/DTD/svg11.dtd">
<svg version="1.1" id="Capa_1" xmlns="http://www.w3.org/2000/svg" xmlns:xlink="http://www.w3.org/1999/xlink" x="0px" y="0px"
	 width="512px" height="512px" viewBox="0 0 512 512" enable-background="new 0 0 512 512" xml:space="preserve">
<g>
	<g>
		<path fill="#F6E7CC" d="M104.929,235.13c41.496-28.971,73.692-64.286,61.696-109.062c-1.063-3.968-2.448-7.668-4.123-11.113
			c-7.959-16.395-22.437-27.13-39.762-34.149C95.055,69.564,60.11,67.8,32.936,67.534c-12.698-0.125-16.52,5.93-16.52,20.418
			v199.591C42.561,272.451,76.006,255.333,104.929,235.13L104.929,235.13z M94.988,167.867c-11.508,0-20.834-9.327-20.834-20.836
			c0-11.507,9.326-20.833,20.834-20.833c11.506,0,20.834,9.326,20.834,20.833C115.822,158.54,106.494,167.867,94.988,167.867z"/>
		<path fill="#99C6CD" d="M94.983,126.193c11.507,0,20.835,9.327,20.835,20.836c0,11.504-9.328,20.831-20.835,20.831
			s-20.833-9.327-20.833-20.831C74.15,135.521,83.477,126.193,94.983,126.193z"/>
		<g>
			<path fill="#F6E7CC" d="M166.625,126.068c11.996,44.775-20.201,80.091-61.697,109.068c19.55,72.948,28.649,79.192,35.41,183.089
				c36.768,21.227,67.344,30.043,115.661,30.043c26.183,0,47.159-2.59,66.733-8.34c16.545-4.862,32.086-11.979,48.927-21.703
				c6.759-103.895,15.864-110.139,35.41-183.096c-41.498-28.971-73.692-64.283-61.698-109.062
				c6.119-22.83,22.921-36.767,43.887-45.263c-26.044-11.735-68.176-17.072-133.259-17.072c-65.086,0-107.218,5.337-133.261,17.072
				c17.324,7.02,31.803,17.755,39.764,34.149C164.177,118.4,165.563,122.101,166.625,126.068z"/>
			<path fill="#F6E7CC" d="M407.068,235.137L407.068,235.137L407.068,235.137z M345.373,126.068
				c-11.995,44.775,20.199,80.091,61.696,109.066c28.928,20.198,62.369,37.316,88.514,52.411V87.95
				c0-14.486-3.823-20.541-16.521-20.416c-27.172,0.266-62.118,2.028-89.806,13.262C368.294,89.302,351.491,103.235,345.373,126.068
				L345.373,126.068z M417.537,167.867c-11.506,0-20.832-9.327-20.832-20.836c0-11.507,9.326-20.833,20.832-20.833
				c11.508,0,20.835,9.326,20.835,20.833C438.372,158.54,429.045,167.867,417.537,167.867z"/>
		</g>
		<g>
			<circle fill="#99C6CD" cx="417.542" cy="147.028" r="20.832"/>
			<path fill="#99C6CD" d="M407.071,235.13L407.071,235.13L407.071,235.13z M495.583,287.543
				c-26.146-15.094-59.587-32.21-88.512-52.413c-19.547,72.957-28.65,79.201-35.41,183.096
				C430.995,418.221,495.583,287.543,495.583,287.543z"/>
			<path fill="#99C6CD" d="M104.929,235.13L104.929,235.13L104.929,235.13z M140.339,418.223
				c-6.761-103.892-15.861-110.138-35.41-183.093c-28.925,20.203-62.369,37.319-88.513,52.413
				C16.416,287.543,81.005,418.221,140.339,418.223z"/>
		</g>
	</g>
	<g>
		<path fill="#ABA392" d="M505.61,290.349c0.01-0.035,0.024-0.067,0.034-0.105c0.11-0.412,0.19-0.83,0.25-1.248
			c0.01-0.076,0.016-0.153,0.023-0.23c0.044-0.354,0.065-0.705,0.072-1.059c0-0.055,0.01-0.107,0.01-0.165V87.95
			c0-7.626,0-30.837-26.557-30.837l-0.483,0.005c-24.034,0.234-55.119,1.588-82.403,10.038c-2.441,0.756-4.809,1.563-7.109,2.408
			c-27.665-11.216-69.18-16.25-133.446-16.25s-105.787,5.034-133.446,16.252c-2.305-0.848-4.668-1.654-7.11-2.41
			c-27.284-8.45-58.372-9.804-82.405-10.038l-0.483-0.005C6,57.113,6,80.324,6,87.95v199.593c0,0.058,0.011,0.11,0.012,0.167
			c0.005,0.35,0.029,0.703,0.068,1.057c0.012,0.075,0.016,0.152,0.025,0.231c0.061,0.417,0.141,0.833,0.252,1.245
			c0.008,0.038,0.022,0.07,0.033,0.105c0.1,0.354,0.219,0.703,0.357,1.051c0.049,0.123,0.104,0.241,0.156,0.362
			c0.059,0.134,0.108,0.269,0.172,0.399c0.675,1.365,16.807,33.823,40.603,66.818c32.194,44.637,62.37,68.019,89.745,69.574
			c38.672,21.93,71.098,30.132,118.575,30.132c26.489,0,48.288-2.558,69.104-8.619c0.407-0.097,0.808-0.209,1.196-0.35
			c16.065-4.792,31.591-11.7,48.273-21.163c27.375-1.556,57.551-24.938,89.747-69.574c23.796-32.99,39.924-65.451,40.601-66.818
			c0.064-0.129,0.114-0.266,0.173-0.399c0.054-0.121,0.107-0.239,0.155-0.362C505.391,291.052,505.512,290.703,505.61,290.349z
			 M479.164,77.951h0.279c3.445,0,4.363,0.64,4.363,0.64c0.015,0.015,1.36,1.502,1.36,9.361v181.732
			c-2.231-1.243-4.499-2.507-6.802-3.79c-21.295-11.849-44.511-24.772-65.176-39.188c-0.085-0.061-0.173-0.12-0.263-0.182
			c-9.743-6.812-18.92-13.952-27.046-21.473c-27.436-25.393-37.394-50.344-30.443-76.285c4.656-17.384,17.089-30.006,37.89-38.387
			c0.083-0.035,0.169-0.059,0.252-0.097c2.887-1.153,5.929-2.229,9.139-3.223C427.424,79.41,456.549,78.173,479.164,77.951z
			 M256.001,74.149c47.62,0,82.572,2.883,107.389,8.965c-14.258,10.344-23.667,23.8-28.077,40.258
			c-12.925,48.243,18.551,85.772,59.824,115.966c-3.707,13.504-7.026,24.665-10.005,34.671
			c-11.319,38.02-18.256,61.322-23.491,137.919c-9.974,5.53-19.433,10.023-28.885,13.632c-0.082-18.793,1.299-39.733,2.269-52.024
			c0.453-5.734-3.827-10.753-9.563-11.205c-5.732-0.455-10.752,3.829-11.207,9.563c-1.108,14.024-2.73,39.002-2.246,60.151
			c-16.74,4.096-34.545,5.808-56.007,5.808c-42.931,0-71.235-6.849-105.641-25.925c-5.233-76.601-12.173-99.906-23.493-137.928
			c-2.979-10.003-6.299-21.158-10.006-34.657c41.274-30.193,72.753-67.723,59.826-115.968c-0.027-0.105-0.061-0.209-0.09-0.314
			c14.58-2.034,35.381-3.623,54.809-4.067c5.75-0.131,10.309-4.901,10.178-10.653c-0.133-5.752-4.943-10.276-10.654-10.175
			c-23.014,0.525-47.336,2.553-63.018,5.147c-4.907-7.686-11.35-14.427-19.302-20.194C173.428,77.032,208.378,74.149,256.001,74.149
			z M26.834,87.95c0-7.857,1.346-9.347,1.352-9.355c0.008-0.004,0.928-0.646,4.37-0.646l0.279,0.003
			c22.614,0.222,51.741,1.456,76.446,9.106c3.211,0.996,6.256,2.07,9.144,3.226c0.075,0.035,0.155,0.058,0.23,0.091
			c20.811,8.38,33.249,21,37.909,38.391c6.951,25.939-3.008,50.893-30.442,76.285c-8.1,7.494-17.241,14.615-26.948,21.404
			c-0.063,0.041-0.121,0.086-0.182,0.127c-20.711,14.467-43.998,27.43-65.354,39.313c-2.302,1.283-4.571,2.545-6.804,3.79V87.95
			L26.834,87.95z M30.248,291.658c4.354-2.452,8.849-4.961,13.523-7.56c17.44-9.707,36.621-20.383,54.934-32.281
			c2.988,10.639,5.709,19.781,8.193,28.126c10.894,36.585,17.174,57.687,22.151,125.972
			C91.442,393.896,49.111,327.125,30.248,291.658z M447.423,346.789c-23.421,32.474-45.838,52.892-64.468,59.042
			c4.976-68.213,11.255-89.31,22.143-125.879c2.485-8.347,5.206-17.491,8.195-28.135c18.314,11.898,37.496,22.576,54.938,32.283
			c4.652,2.59,9.133,5.086,13.47,7.529C475.412,303.314,463.045,325.13,447.423,346.789z"/>
		<path fill="#ABA392" d="M94.99,178.284c17.232,0,31.251-14.019,31.251-31.253c0-17.231-14.019-31.252-31.251-31.252
			c-17.234,0-31.252,14.021-31.252,31.252C63.738,164.266,77.756,178.284,94.99,178.284z M94.99,136.614
			c5.742,0,10.415,4.674,10.415,10.417c0,5.745-4.673,10.417-10.415,10.417c-5.744,0-10.416-4.672-10.416-10.417
			C84.574,141.288,89.246,136.614,94.99,136.614z"/>
		<path fill="#ABA392" d="M386.287,147.031c0,17.234,14.02,31.253,31.253,31.253s31.252-14.019,31.252-31.253
			c0-17.229-14.019-31.25-31.252-31.25S386.287,129.802,386.287,147.031z M417.54,136.614c5.743,0,10.416,4.674,10.416,10.417
			c0,5.745-4.673,10.417-10.416,10.417c-5.745,0-10.417-4.672-10.417-10.417C407.123,141.288,411.795,136.614,417.54,136.614z"/>
		<path fill="#ABA392" d="M260.76,119.339c0.049,0,0.178,0.009,0.26,0.013c0.207,0.014,0.416,0.018,0.625,0.018
			c5.435,0,10.014-4.216,10.385-9.72c0.385-5.741-3.956-10.707-9.698-11.092l-0.259-0.015c-5.742-0.356-10.668,3.996-11.038,9.729
			C250.664,114.013,255.02,118.968,260.76,119.339z"/>
		<path fill="#ABA392" d="M326.194,354.049c0.447,0.057,0.888,0.085,1.323,0.085c5.169,0,9.656-3.845,10.323-9.106l0.111-0.872
			c0.758-5.704-3.252-10.939-8.957-11.698c-5.701-0.749-10.94,3.254-11.696,8.958l-0.128,0.988
			C316.447,348.112,320.487,353.326,326.194,354.049z"/>
	</g>
</g>
</svg>
