<?xml version="1.0" encoding="utf-8"?>
<!-- Generator: Adobe Illustrator 16.0.0, SVG Export Plug-In . SVG Version: 6.00 Build 0)  -->
<!DOCTYPE svg PUBLIC "-//W3C//DTD SVG 1.1//EN" "http://www.w3.org/Graphics/SVG/1.1/DTD/svg11.dtd">
<svg version="1.1" id="Capa_1" xmlns="http://www.w3.org/2000/svg" xmlns:xlink="http://www.w3.org/1999/xlink" x="0px" y="0px"
	 width="512px" height="512px" viewBox="0 0 512 512" enable-background="new 0 0 512 512" xml:space="preserve">
<g id="XMLID_2_">
	<g>
		<path fill="#E9CBB2" d="M448.543,329.086c-0.54,2.22-1.12,4.42-1.733,6.606c-0.073-0.44-0.113-0.9-0.113-1.367
			C446.696,332.339,447.39,330.519,448.543,329.086z"/>
		<path fill="#76AADB" d="M201.222,270.351c0,0.453-0.014,0.906-0.02,1.359c-0.58-15.679-11.893-28.197-25.785-28.197
			c-13.879,0-25.205,12.519-25.771,28.197c-0.02-0.453-0.033-0.906-0.033-1.359c0-17.699,11.553-32.052,25.805-32.052
			S201.222,252.651,201.222,270.351z"/>
		<path fill="#DDBAA7" d="M54.126,325.953c0.9,0,1.773,0.14,2.587,0.406c-4.62,0-8.366,3.34-8.366,7.966
			c0,2.28,0.866,4.267,2.307,5.687c-1.021-0.094-2.033-0.227-3.026-0.407c-1.167-1.439-1.873-3.279-1.873-5.279
			C45.754,329.699,49.507,325.953,54.126,325.953z"/>
		<path fill="#FFFFFF" d="M293.675,238.572c-3.773,7.126-5.92,15.406-5.92,24.266c0,26.558,19.346,48.076,43.217,48.076
			c15.053,0,28.318-8.573,36.031-21.572c-7.467,14.299-21.412,23.925-37.357,23.925c-23.865,0-43.21-21.531-43.21-48.076
			C286.436,255.345,289.095,246.192,293.675,238.572z"/>
		<path fill="#E9CBB2" d="M448.569,339.599c-0.913-0.16-1.819-0.354-2.713-0.587c0.327-1.1,0.646-2.207,0.953-3.319
			C447.05,337.158,447.67,338.498,448.569,339.599z"/>
		<path fill="#E9CBB2" d="M453.716,250.019c0.453-0.014,0.9-0.026,1.354-0.026c22.498,0,40.736,20.178,40.736,45.09
			c0,22.451-14.825,41.076-34.23,44.522c1.174-1.439,1.873-3.279,1.873-5.279c0-3.727-2.426-6.879-5.793-7.966
			c-0.813-0.267-1.687-0.406-2.586-0.406c-2.64,0-4.993,1.22-6.526,3.133c4.26-17.285,6.526-35.424,6.526-54.13
			C455.069,266.518,454.609,258.191,453.716,250.019z"/>
		<path fill="#E9CBB2" d="M457.655,326.359l-0.026,2.693c-1.434,0.153-2.56,1.653-2.56,3.479c0,1.793,1.087,3.273,2.486,3.473
			l-0.04,4.087c-0.807,0.06-1.627,0.087-2.446,0.087c-1.167,0-2.326-0.054-3.474-0.16c-1.439-1.42-2.313-3.406-2.313-5.693
			C449.283,329.699,453.036,326.359,457.655,326.359z"/>
		<path fill="#DDBAA7" d="M62.499,334.325c0,0.46-0.04,0.913-0.106,1.347c-0.607-2.173-1.187-4.366-1.727-6.573
			C61.819,330.525,62.499,332.346,62.499,334.325z"/>
		<path fill="#B89B8D" d="M239.646,333.585c12.605-13.198,53.609-17.738,49.496,10.333c-0.227,1.526-3.506,1.953-3.26,0.233
			c3.62-24.665-32.178-21.438-43.536-9.546C241.313,335.692,238.226,335.085,239.646,333.585z"/>
		<path fill="#E9CBB2" d="M381.048,233.206c-2.293,4.153-4.133,10.366-9.632,12.726c-0.233-0.727-0.487-1.433-0.761-2.119
			c0.113-0.567,0.287-1.021,0.627-1.106c6.779-1.747,8.766-8.74,11.246-13.279C381.875,230.62,381.722,232,381.048,233.206z"/>
		<path fill="#3C2C17" d="M330.972,214.774c16.786,0,31.338,10.652,38.478,26.218c0.026,0.307-0.033,0.561-0.214,0.727
			c0.127-0.106,0.261-0.233,0.387-0.354c0.367,0.801,0.707,1.62,1.033,2.447c-0.239,1.066-0.286,2.513-0.873,2.673l-0.286,0.106
			c-6.526-17.312-21.919-29.471-39.851-29.471c-15.025,0-28.251,8.52-35.971,21.451C301.161,224.334,315.06,214.774,330.972,214.774
			z"/>
		<path fill="#573216" d="M457.516,340.092l-0.026,2.253c-2.34,0-4.413-0.866-5.894-2.326c1.147,0.106,2.307,0.16,3.474,0.16
			C455.889,340.179,456.709,340.151,457.516,340.092z"/>
		<path fill="#FFFFFF" d="M369.235,241.719c0.181-0.166,0.24-0.42,0.214-0.727c0.073,0.12,0.126,0.254,0.173,0.373
			C369.496,241.485,369.362,241.612,369.235,241.719z"/>
		<path fill="#76AADB" d="M326.179,243.933c-13.879,0-25.211,12.505-25.791,28.197c-0.014-0.453-0.014-0.906-0.014-1.359
			c0-17.712,11.553-32.064,25.805-32.064c14.246,0,25.805,14.353,25.805,32.064c0,0.453-0.02,0.906-0.033,1.359
			C351.384,256.438,340.058,243.933,326.179,243.933z"/>
		<path fill="#E9CBB2" d="M446.81,335.692c0.613-2.187,1.193-4.387,1.733-6.606c1.533-1.913,3.887-3.133,6.526-3.133
			c0.899,0,1.773,0.14,2.586,0.406c-4.619,0-8.372,3.34-8.372,7.966c0,2.287,0.873,4.273,2.313,5.693
			c-1.02-0.101-2.033-0.233-3.026-0.42C447.67,338.498,447.05,337.158,446.81,335.692z"/>
		<path fill="#FFFFFF" d="M174.091,302.374c-13.64-0.786-24.479-13.652-24.479-29.411c0-0.42,0.014-0.833,0.033-1.253
			C150.192,288.242,160.825,301.534,174.091,302.374z"/>
		<path fill="#573216" d="M13.39,295.082c0,22.451,14.825,41.076,34.237,44.522c1.54,1.887,3.88,3.094,6.499,3.094
			c0.84,0,1.653-0.127,2.42-0.354c1.627-0.486,3.047-1.46,4.087-2.746c0.92-0.16,1.826-0.354,2.72-0.587
			c15.885,53.583,51.143,98.025,97.072,124.03l-1.02,1.807C46.394,398.034,5.403,331.586,6.003,274.224
			c3.693-77.521,31.018-158.002,98.939-200.818c56.843-36.185,87.014-56.716,138.996-44.804
			C295.354,12.003,363.81,43.801,407.06,71.318c67.928,42.83,98.879,123.211,98.933,200.825
			c0.74,46.517-76.048,166.127-149.075,186.025c41.943-26.491,74.001-68.788,88.939-119.157c0.894,0.233,1.8,0.427,2.713,0.587
			c1.533,1.893,3.873,3.1,6.5,3.1c0.84,0,1.653-0.127,2.42-0.354c1.626-0.486,3.039-1.453,4.086-2.74
			c19.405-3.446,34.23-22.071,34.23-44.522c0-24.912-18.238-45.09-40.736-45.09c-0.453,0-0.9,0.013-1.354,0.026
			c-0.013-0.16-0.033-0.3-0.047-0.447C441.851,143.894,357.224,61.952,254.591,61.952c-12.625,0-24.978,1.24-36.957,3.613
			C132.927,82.338,66.959,155.705,55.8,247.339c-0.107,0.893-0.207,1.779-0.313,2.68c-0.453-0.014-0.907-0.026-1.36-0.026
			C31.628,249.992,13.39,270.17,13.39,295.082z"/>
		<path fill="#FFFFFF" d="M132.134,240.579c-0.014,0.313,0.04,0.566,0.227,0.72c-0.127-0.113-0.26-0.233-0.387-0.354
			C132.027,240.826,132.087,240.699,132.134,240.579z"/>
		<path fill="#DDBAA7" d="M63.353,339.012c-0.894,0.233-1.8,0.427-2.72,0.587c0.899-1.106,1.52-2.453,1.76-3.927
			C62.705,336.792,63.025,337.905,63.353,339.012z"/>
		<path fill="#0B080B" d="M338.898,262.364c0.187,2.326,1.68,4.1,3.339,3.966c1.674-0.146,2.86-2.152,2.674-4.473
			c-0.187-2.326-1.687-4.1-3.333-3.96C339.925,258.045,338.718,260.038,338.898,262.364z M326.179,243.933
			c13.879,0,25.205,12.505,25.771,28.197c-0.547,16.532-11.179,29.824-24.444,30.664c-0.44,0.027-0.88,0.04-1.327,0.04
			c-0.446,0-0.887-0.013-1.326-0.04c-13.266-0.84-23.905-14.132-24.465-30.664C300.968,256.438,312.3,243.933,326.179,243.933z
			 M314.507,292.642c2.473-0.893,3.52-4.426,2.34-7.886c-1.174-3.467-4.127-5.546-6.6-4.64c-2.467,0.899-3.526,4.433-2.354,7.899
			C309.087,291.469,312.04,293.549,314.507,292.642z"/>
		<path fill="#E9CBB2" d="M369.622,241.365c-0.047-0.119-0.1-0.253-0.173-0.373c-0.033-1.046-0.873-2.653-0.214-3.227
			c4.293-3.732,5.76-8.053,6.76-12.898c-0.26,1.273,0.26,2.653,0,3.953C375.028,233.513,373.622,237.713,369.622,241.365z"/>
		<path fill="#DDBAA7" d="M59.759,332.532c0-1.934-1.26-3.5-2.819-3.5c-0.087,0-0.174,0.007-0.254,0.021l0.027-2.693
			c1.58,0.507,2.946,1.473,3.953,2.739c0.54,2.207,1.119,4.4,1.727,6.573c-0.24,1.474-0.86,2.82-1.76,3.927
			c-1.334,0.246-2.687,0.413-4.061,0.5l0.04-4.094c0.107,0.021,0.214,0.027,0.327,0.027
			C58.499,336.032,59.759,334.466,59.759,332.532z"/>
		<path fill="#DDBAA7" d="M58.952,332.532c0,1.38-0.906,2.493-2.013,2.493c-0.106,0-0.214-0.014-0.313-0.033l0.047-4.927
			c0.087-0.02,0.18-0.026,0.267-0.026C58.046,330.039,58.952,331.159,58.952,332.532z"/>
		<path fill="#573216" d="M56.546,342.345c-0.767,0.227-1.58,0.354-2.42,0.354c-2.619,0-4.959-1.207-6.499-3.094
			c0.993,0.181,2.006,0.313,3.026,0.407C52.126,341.472,54.199,342.345,56.546,342.345z"/>
		<path fill="#FFFFFF" d="M300.374,270.771c0,0.453,0,0.906,0.014,1.359c-0.014,0.413-0.014,0.833-0.014,1.253
			c0,15.753,10.84,28.625,24.479,29.411c0.439,0.027,0.88,0.04,1.326,0.04c0.447,0,0.887-0.013,1.327-0.04
			c13.632-0.786,24.478-13.658,24.478-29.411c0-0.42-0.02-0.84-0.033-1.253c0.014-0.453,0.033-0.906,0.033-1.359
			c0-17.712-11.559-32.064-25.805-32.064C311.927,238.706,300.374,253.059,300.374,270.771z M369.496,246.592
			c2.159,5.713,3.353,11.992,3.353,18.599c0,8.8-2.113,17.052-5.846,24.151c-7.713,12.999-20.979,21.572-36.031,21.572
			c-23.871,0-43.217-21.519-43.217-48.076c0-8.859,2.146-17.14,5.92-24.266c7.72-12.932,20.945-21.451,35.971-21.451
			C347.577,217.121,362.97,229.28,369.496,246.592z"/>
		<path fill="#FFFFFF" d="M157.278,277.803c2.467-0.906,5.427,1.174,6.6,4.64c1.18,3.453,0.12,6.986-2.34,7.887
			c-2.479,0.906-5.433-1.174-6.6-4.627C153.759,282.236,154.812,278.696,157.278,277.803z"/>
		<path fill="#3C2C17" d="M371.416,245.932c1.786,5.26,2.753,10.953,2.753,16.906c0,9.806-2.627,18.904-7.166,26.504
			c3.732-7.1,5.846-15.352,5.846-24.151c0-6.606-1.193-12.886-3.353-18.599l0.286-0.106
			C370.362,246.339,370.909,246.152,371.416,245.932z"/>
		<path fill="#B89B8D" d="M305.041,374.942c1.187,1.053,1.373,2.8,0.446,4.086l-0.08,0.101
			c-11.766,14.705-21.385,20.165-35.504,20.165c-7.199,0-15.492-1.373-26.545-3.573c-1.666-0.394-2.68-1.953-2.399-3.547
			c0.253-1.453,1.513-2.492,3-2.492l0.593,0.053c10.666,2.127,18.605,3.46,25.271,3.46c12.359,0,20.139-4.52,30.838-17.879
			c0.986-1.239,2.893-1.479,4.18-0.553L305.041,374.942z M243.892,393.001c10.646,2.126,18.959,3.526,26.012,3.526
			c13.172,0,21.965-4.906,33.344-19.125c0.094-0.127,0.067-0.3-0.046-0.4c-0.12-0.093-0.294-0.066-0.387,0.04
			c-17.286,21.612-28.531,21.465-58.81,15.405c-0.146-0.02-0.293,0.08-0.319,0.227C243.652,392.827,243.759,392.968,243.892,393.001
			z"/>
		<path fill="#FFFFFF" d="M369.782,246.485c0.587-0.16,0.634-1.606,0.873-2.673c0.273,0.687,0.527,1.393,0.761,2.119
			C370.909,246.152,370.362,246.339,369.782,246.485z"/>
		<path fill="#3C2C17" d="M189.296,175.537c-11.893-1.573-24.852-2.593-36.324,1.894c-11.412,4.46-19.578,13.292-26.178,23.678
			c0.46-0.72,0.16-1.973-0.066-3.173c1.08-2.5,2.193-4.973,3.353-7.426c5.946-8.22,13.34-15.393,22.892-18.818
			c11.727-4.193,24.205-3.487,36.324-1.88C189.569,169.845,189.116,175.518,189.296,175.537z"/>
		<path fill="#FFFFFF" d="M344.911,261.857c0.187,2.32-1,4.326-2.674,4.473c-1.659,0.134-3.152-1.64-3.339-3.966
			c-0.181-2.326,1.026-4.319,2.68-4.467C343.225,257.758,344.725,259.531,344.911,261.857z"/>
		<path fill="#573216" d="M60.633,339.599c-1.04,1.286-2.46,2.26-4.087,2.746l0.026-2.246
			C57.946,340.012,59.299,339.845,60.633,339.599z"/>
		<path fill="#DDBAA7" d="M55.486,250.019c-0.894,8.173-1.36,16.499-1.36,24.938c0,18.706,2.273,36.857,6.54,54.143
			c-1.007-1.267-2.373-2.232-3.953-2.739c-0.813-0.267-1.687-0.406-2.587-0.406c-4.619,0-8.372,3.746-8.372,8.372
			c0,2,0.706,3.84,1.873,5.279c-19.412-3.446-34.237-22.071-34.237-44.522c0-24.912,18.238-45.09,40.736-45.09
			C54.579,249.992,55.033,250.005,55.486,250.019z"/>
		<path fill="#B89B8D" d="M244.005,392.447c30.278,6.06,41.523,6.207,58.81-15.405c0.093-0.106,0.267-0.133,0.387-0.04
			c0.113,0.101,0.14,0.273,0.046,0.4c-11.379,14.219-20.172,19.125-33.344,19.125c-7.053,0-15.365-1.4-26.012-3.526
			c-0.133-0.033-0.239-0.174-0.206-0.327C243.712,392.527,243.858,392.428,244.005,392.447z"/>
		<path fill="#E9CBB2" d="M286.436,265.19c0,26.545,19.345,48.076,43.21,48.076c15.945,0,29.891-9.626,37.357-23.925
			c4.539-7.6,7.166-16.698,7.166-26.504c0-5.953-0.967-11.646-2.753-16.906c5.499-2.359,7.339-8.572,9.632-12.726
			c0.674-1.206,0.827-2.586,1.48-3.779c-2.48,4.539-4.467,11.532-11.246,13.279c-0.34,0.086-0.514,0.539-0.627,1.106
			c-0.326-0.827-0.666-1.646-1.033-2.447c4-3.652,5.406-7.853,6.373-12.545c0.26-1.3-0.26-2.68,0-3.953
			c-1,4.846-2.467,9.166-6.76,12.898c-0.659,0.573,0.181,2.181,0.214,3.227c-7.14-15.565-21.691-26.218-38.478-26.218
			c-15.912,0-29.811,9.56-37.297,23.798C289.095,246.192,286.436,255.345,286.436,265.19z M242.346,334.605
			c11.358-11.893,47.156-15.119,43.536,9.546c-0.246,1.72,3.033,1.293,3.26-0.233c4.113-28.071-36.891-23.531-49.496-10.333
			C238.226,335.085,241.313,335.692,242.346,334.605z M125.601,228.4c0.967,4.692,2.387,8.899,6.373,12.545
			c-0.366,0.807-0.713,1.627-1.033,2.46c-0.113-0.566-0.287-1.02-0.613-1.106c-6.566-1.706-8.633-8.286-11.039-12.839
			c0.486,1.093,0.68,2.273,1.267,3.319c2.3,4.167,4.126,10.359,9.626,12.727c-1.773,5.259-2.74,10.966-2.74,16.925
			c0,9.879,2.68,19.059,7.267,26.698c7.499,14.192,21.378,23.718,37.243,23.718c23.865,0,43.217-21.519,43.217-48.069
			c0-9.819-2.646-18.959-7.199-26.564c-7.499-14.279-21.398-23.858-37.337-23.858c-16.785,0-31.331,10.652-38.497,26.225
			c0.04-1.02,0.887-2.646,0.227-3.22c-4.286-3.746-5.76-8.066-6.76-12.919C125.874,225.727,125.341,227.113,125.601,228.4z
			 M243.892,132.601c17.719,28.064,48.724,42.823,76.788,58.329c39.87,22.151,75.681,32.117,94.499,84.913
			c0-5.826,0.547-10.552,1.307-15.525l0.16,0.021c2.713-0.54,9.366-1.653,16.945-3.58c-11.565,7.953-19.266,22.139-19.266,38.324
			c0,21.392,13.459,39.316,31.531,43.93c-14.938,50.369-46.996,92.666-88.939,119.157c-29.951,18.926-64.949,29.805-102.326,29.805
			c-1.313,0-2.619-0.014-3.926-0.047c-0.027,0.007-0.047,0.007-0.073,0c-4.946-0.1-9.847-0.393-14.699-0.873
			c-77.241-9.199-128.597-90.586-128.597-197.038c0-32.291,7.179-63.688,19.432-92.08c0.227,1.2,0.526,2.453,0.066,3.173
			c6.6-10.386,14.766-19.218,26.178-23.678c11.473-4.486,24.432-3.467,36.324-1.894c-0.18-0.02,0.273-5.692,0-5.726
			c-12.119-1.607-24.598-2.313-36.324,1.88c-9.552,3.426-16.945,10.599-22.892,18.818c22.686-48.123,59.956-86.687,100.899-104.726
			C224.88,100.816,236.699,120.182,243.892,132.601z M243.358,395.721c11.053,2.2,19.346,3.573,26.545,3.573
			c14.119,0,23.738-5.46,35.504-20.165l0.08-0.101c0.927-1.286,0.74-3.033-0.446-4.086l-0.2-0.18
			c-1.287-0.927-3.193-0.687-4.18,0.553c-10.699,13.359-18.479,17.879-30.838,17.879c-6.666,0-14.605-1.333-25.271-3.46
			l-0.593-0.053c-1.487,0-2.747,1.039-3,2.492C240.679,393.768,241.692,395.327,243.358,395.721z"/>
		<path fill="#FFFFFF" d="M191.942,259.538c0.18,2.326-1.02,4.333-2.68,4.479c-1.66,0.126-3.16-1.64-3.326-3.967
			c-0.193-2.326,1-4.319,2.666-4.466C190.263,255.444,191.763,257.211,191.942,259.538z"/>
		<path fill="#573216" d="M457.489,342.345c-0.767,0.227-1.58,0.354-2.42,0.354c-2.627,0-4.967-1.207-6.5-3.1
			c0.993,0.187,2.007,0.319,3.026,0.42C453.076,341.479,455.149,342.345,457.489,342.345z"/>
		<path fill="#3C2C17" d="M127.44,262.431c0-5.959,0.967-11.666,2.74-16.925c0.507,0.227,1.066,0.413,1.633,0.566l0.294,0.113
			c-2.16,5.726-3.36,12.006-3.36,18.592c0,8.886,2.18,17.212,5.96,24.352C130.12,281.489,127.44,272.31,127.44,262.431z"/>
		<path fill="#FFFFFF" d="M171.95,312.847c-15.865,0-29.744-9.525-37.243-23.718c7.739,12.886,20.945,21.365,35.924,21.365
			c23.878,0,43.217-21.519,43.217-48.063c0-8.826-2.146-17.112-5.88-24.218c4.553,7.605,7.199,16.745,7.199,26.564
			C215.167,291.328,195.815,312.847,171.95,312.847z"/>
		<path fill="#573216" d="M452.696,250.071c-5.84,2.9-12.793,5.08-19.105,6.687C439.19,252.905,445.71,250.512,452.696,250.071z"/>
		<path fill="#573216" d="M50.653,340.012c1.146,0.113,2.3,0.167,3.473,0.167c0.82,0,1.64-0.027,2.446-0.08l-0.026,2.246
			C54.199,342.345,52.126,341.472,50.653,340.012z"/>
		<path fill="#DDBAA7" d="M56.612,336.005c-1.399-0.199-2.486-1.68-2.486-3.473c0-1.826,1.127-3.326,2.56-3.479l-0.013,1.013
			c-0.98,0.16-1.74,1.207-1.74,2.467c0,1.246,0.733,2.279,1.693,2.46L56.612,336.005z"/>
		<path fill="#DDBAA7" d="M55.486,250.019c21.865,0.793,39.37,20.665,39.37,45.063c0,21.392-13.452,39.304-31.504,43.93
			c-0.327-1.106-0.647-2.22-0.96-3.34c0.066-0.434,0.106-0.887,0.106-1.347c0-1.979-0.68-3.8-1.833-5.227
			c-4.267-17.285-6.54-35.437-6.54-54.143C54.126,266.518,54.593,258.191,55.486,250.019z"/>
		<path fill="#DDBAA7" d="M56.939,329.032c1.56,0,2.819,1.566,2.819,3.5s-1.26,3.5-2.819,3.5c-0.113,0-0.22-0.007-0.327-0.027
			l0.014-1.013c0.1,0.02,0.207,0.033,0.313,0.033c1.106,0,2.013-1.113,2.013-2.493c0-1.373-0.906-2.493-2.013-2.493
			c-0.087,0-0.18,0.007-0.267,0.026l0.013-1.013C56.766,329.039,56.853,329.032,56.939,329.032z"/>
		<path fill="#E9CBB2" d="M463.448,334.325c0,2-0.699,3.84-1.873,5.279c-1.333,0.24-2.687,0.4-4.06,0.487l0.04-4.087
			c0.106,0.021,0.213,0.027,0.327,0.027c1.56,0,2.819-1.566,2.819-3.5s-1.26-3.5-2.819-3.5c-0.087,0-0.174,0.007-0.254,0.021
			l0.026-2.693C461.022,327.446,463.448,330.599,463.448,334.325z"/>
		<path fill="#FFFFFF" d="M201.222,272.963c0,15.759-10.839,28.625-24.479,29.411c13.279-0.84,23.898-14.132,24.459-30.664
			C201.208,272.13,201.222,272.543,201.222,272.963z"/>
		<path fill="#DDBAA7" d="M56.713,326.359l-0.027,2.693c-1.433,0.153-2.56,1.653-2.56,3.479c0,1.793,1.087,3.273,2.486,3.473
			l-0.04,4.094c-0.807,0.053-1.626,0.08-2.446,0.08c-1.173,0-2.326-0.054-3.473-0.167c-1.44-1.42-2.307-3.406-2.307-5.687
			C48.347,329.699,52.093,326.359,56.713,326.359z"/>
		<path fill="#573216" d="M461.575,339.604c-1.047,1.287-2.46,2.254-4.086,2.74l0.026-2.253
			C458.889,340.005,460.242,339.845,461.575,339.604z"/>
		<path fill="#FFFFFF" d="M453.669,249.571c0.014,0.147,0.034,0.287,0.047,0.447c-0.34,0.007-0.693,0.033-1.02,0.053
			C453.01,249.905,453.343,249.738,453.669,249.571z"/>
		<path fill="#FFFFFF" d="M130.181,245.506c0.246-0.707,0.5-1.414,0.76-2.101c0.24,1.061,0.28,2.514,0.873,2.667
			C131.247,245.919,130.688,245.732,130.181,245.506z"/>
		<path fill="#FFFFFF" d="M149.612,270.351c0,0.453,0.014,0.906,0.033,1.359c-0.02,0.42-0.033,0.833-0.033,1.253
			c0,15.759,10.839,28.625,24.479,29.411c0.439,0.027,0.88,0.04,1.326,0.04s0.887-0.013,1.326-0.04
			c13.64-0.786,24.479-13.652,24.479-29.411c0-0.42-0.014-0.833-0.02-1.253c0.006-0.453,0.02-0.906,0.02-1.359
			c0-17.699-11.553-32.052-25.805-32.052S149.612,252.651,149.612,270.351z M207.968,238.213c3.733,7.105,5.88,15.392,5.88,24.218
			c0,26.545-19.339,48.063-43.217,48.063c-14.979,0-28.185-8.479-35.924-21.365c-3.78-7.14-5.96-15.466-5.96-24.352
			c0-6.586,1.2-12.866,3.36-18.592c6.52-17.325,21.911-29.484,39.843-29.484C186.989,216.701,200.235,225.24,207.968,238.213z"/>
		<path fill="#DDBAA7" d="M56.673,330.065l-0.047,4.927c-0.96-0.181-1.693-1.214-1.693-2.46
			C54.933,331.272,55.692,330.226,56.673,330.065z"/>
		<path fill="#3C2C17" d="M373.429,190.643c0.873,1.354-0.82,4.42,0,5.74c-6.579-10.393-14.752-19.219-26.171-23.679
			c-11.46-4.5-24.419-3.466-36.317-1.899c0.193-0.021-0.273-5.693,0-5.733c12.119-1.606,24.598-2.313,36.317,1.894
			C358.663,171.051,366.989,180.477,373.429,190.643z"/>
		<path fill="#E9CBB2" d="M130.94,243.405c-0.26,0.687-0.514,1.394-0.76,2.101c-5.5-2.367-7.326-8.56-9.626-12.727
			c-0.587-1.046-0.78-2.227-1.267-3.319c2.406,4.553,4.473,11.133,11.039,12.839C130.653,242.386,130.827,242.839,130.94,243.405z"
			/>
		<path fill="#E9CBB2" d="M455.069,332.532c0-1.826,1.126-3.326,2.56-3.479l-0.014,1.013c-0.973,0.16-1.739,1.207-1.739,2.467
			c0,1.246,0.74,2.279,1.693,2.46l-0.014,1.013C456.156,335.806,455.069,334.325,455.069,332.532z"/>
		<path fill="#FFFFFF" d="M324.853,302.794c-13.639-0.786-24.479-13.658-24.479-29.411c0-0.42,0-0.84,0.014-1.253
			C300.947,288.662,311.587,301.954,324.853,302.794z"/>
		<path fill="#E9CBB2" d="M453.716,250.019c0.894,8.173,1.354,16.499,1.354,24.938c0,18.706-2.267,36.845-6.526,54.13
			c-1.153,1.433-1.847,3.253-1.847,5.239c0,0.467,0.04,0.927,0.113,1.367c-0.307,1.112-0.626,2.22-0.953,3.319
			c-18.072-4.613-31.531-22.538-31.531-43.93c0-16.186,7.7-30.371,19.266-38.324c6.313-1.606,13.266-3.786,19.105-6.687
			C453.022,250.052,453.376,250.025,453.716,250.019z"/>
		<path fill="#3C2C17" d="M132.134,240.579c7.166-15.572,21.712-26.225,38.497-26.225c15.938,0,29.838,9.579,37.337,23.858
			c-7.732-12.973-20.979-21.512-36.018-21.512c-17.932,0-33.323,12.159-39.843,29.484l-0.294-0.113
			c-0.593-0.153-0.633-1.606-0.873-2.667c0.32-0.833,0.667-1.653,1.033-2.46c0.127,0.12,0.26,0.24,0.387,0.354
			C132.174,241.146,132.12,240.893,132.134,240.579z"/>
		<path fill="#E9CBB2" d="M125.601,224.44c1,4.853,2.474,9.173,6.76,12.919c0.66,0.573-0.187,2.2-0.227,3.22
			c-0.047,0.12-0.106,0.247-0.16,0.366c-3.986-3.646-5.406-7.853-6.373-12.545C125.341,227.113,125.874,225.727,125.601,224.44z"/>
		<path fill="#3C2C17" d="M126.794,195.369c1.047-1.646,2.14-3.273,3.286-4.859c-1.159,2.453-2.272,4.926-3.353,7.426
			C126.541,196.942,126.407,195.982,126.794,195.369z"/>
		<path fill="#FFFFFF" d="M351.983,273.383c0,15.753-10.846,28.625-24.478,29.411c13.266-0.84,23.897-14.132,24.444-30.664
			C351.964,272.543,351.983,272.963,351.983,273.383z"/>
		<path fill="#E9CBB2" d="M457.883,330.039c-0.087,0-0.181,0.007-0.268,0.026l0.014-1.013c0.08-0.014,0.167-0.021,0.254-0.021
			c1.56,0,2.819,1.566,2.819,3.5s-1.26,3.5-2.819,3.5c-0.114,0-0.221-0.007-0.327-0.027l0.014-1.013
			c0.106,0.02,0.206,0.033,0.313,0.033c1.106,0,2.013-1.113,2.013-2.493C459.896,331.159,458.989,330.039,457.883,330.039z"/>
		<path d="M154.938,285.702c1.167,3.453,4.12,5.533,6.6,4.627c2.46-0.9,3.52-4.434,2.34-7.887c-1.173-3.466-4.133-5.546-6.6-4.64
			C154.812,278.696,153.759,282.236,154.938,285.702z M185.937,260.051c0.166,2.327,1.666,4.093,3.326,3.967
			c1.66-0.146,2.859-2.153,2.68-4.479c-0.18-2.327-1.68-4.094-3.34-3.953C186.937,255.731,185.743,257.725,185.937,260.051z
			 M174.091,302.374c-13.266-0.84-23.898-14.132-24.445-30.664c0.566-15.679,11.893-28.197,25.771-28.197
			c13.893,0,25.205,12.519,25.785,28.197c-0.561,16.532-11.18,29.824-24.459,30.664c-0.439,0.027-0.88,0.04-1.326,0.04
			S174.53,302.401,174.091,302.374z"/>
		<path fill="#FFFFFF" d="M316.847,284.756c1.18,3.46,0.133,6.993-2.34,7.886c-2.467,0.907-5.42-1.173-6.613-4.626
			c-1.173-3.467-0.113-7,2.354-7.899C312.72,279.21,315.673,281.289,316.847,284.756z"/>
		<path fill="#DDBAA7" d="M230.979,85.784c-40.943,18.039-78.214,56.603-100.899,104.726c-1.146,1.586-2.239,3.213-3.286,4.859
			c-0.387,0.613-0.253,1.573-0.066,2.566c-12.253,28.392-19.432,59.789-19.432,92.08c0,106.452,51.355,187.839,128.597,197.038
			c-27.071-2.66-52.59-11.046-75.468-24.012c-45.93-26.005-81.188-70.447-97.072-124.03c18.052-4.626,31.504-22.538,31.504-43.93
			c0-24.398-17.505-44.271-39.37-45.063c0.106-0.9,0.206-1.787,0.313-2.68c50.536-15.799,87.473-92.493,110.564-130.977
			C178.177,96.43,206.608,80.611,230.979,85.784z"/>
		<path fill="#E9CBB2" d="M457.615,330.065l-0.046,4.927c-0.953-0.181-1.693-1.214-1.693-2.46
			C455.876,331.272,456.643,330.226,457.615,330.065z"/>
		<path fill="#E9CBB2" d="M457.883,330.039c1.106,0,2.013,1.12,2.013,2.493c0,1.38-0.906,2.493-2.013,2.493
			c-0.107,0-0.207-0.014-0.313-0.033l0.046-4.927C457.702,330.046,457.796,330.039,457.883,330.039z"/>
		<path fill="#573216" d="M347.258,172.704c11.419,4.46,19.592,13.286,26.171,23.679c-0.82-1.32,0.873-4.387,0-5.74
			c-6.439-10.166-14.766-19.592-26.171-23.678c-11.72-4.206-24.198-3.5-36.317-1.894c-0.273,0.04,0.193,5.713,0,5.733
			C322.839,169.238,335.798,168.204,347.258,172.704z M217.634,65.565c11.979-2.373,24.332-3.613,36.957-3.613
			c102.633,0,187.26,81.941,199.078,187.619c-0.326,0.167-0.659,0.334-0.973,0.5c-6.986,0.44-13.506,2.834-19.105,6.687
			c-7.579,1.927-14.232,3.04-16.945,3.58l-0.16-0.021c-0.76,4.974-1.307,9.699-1.307,15.525
			c-18.818-52.796-54.629-62.762-94.499-84.913c-28.064-15.506-59.069-30.265-76.788-58.329
			c-7.192-12.419-19.012-31.784-12.912-46.816c-24.371-5.173-52.803,10.646-64.615,30.578
			C143.272,154.846,106.336,231.54,55.8,247.339C66.959,155.705,132.927,82.338,217.634,65.565z"/>
	</g>
	<g>
		<path fill="none" stroke="#372611" stroke-miterlimit="10" d="M229.866,71.318c-4.52-2.899-8.333-4.673-12.232-5.753"/>
		<path fill="none" stroke="#372611" stroke-miterlimit="10" d="M230.606,60.986c-1.48-5.906-5.18-12.553-9.6-16.985"/>
		<path fill="none" stroke="#372611" stroke-miterlimit="10" d="M235.772,60.246c8.859-5.906,28.051-8.859,37.65-3.693"/>
		<path fill="none" stroke="#372611" stroke-miterlimit="10" d="M241.679,75.012c10.333,2.953,17.719,8.859,25.098,16.985"/>
	</g>
</g>
</svg>
