<?xml version="1.0" encoding="utf-8"?>
<!-- Generator: Adobe Illustrator 16.0.0, SVG Export Plug-In . SVG Version: 6.00 Build 0)  -->
<!DOCTYPE svg PUBLIC "-//W3C//DTD SVG 1.1//EN" "http://www.w3.org/Graphics/SVG/1.1/DTD/svg11.dtd">
<svg version="1.1" id="Capa_1" xmlns="http://www.w3.org/2000/svg" xmlns:xlink="http://www.w3.org/1999/xlink" x="0px" y="0px"
	 width="512px" height="512px" viewBox="0 0 512 512" enable-background="new 0 0 512 512" xml:space="preserve">
<g id="surface1_2_">
	<path fill="#AB3B1C" d="M318.501,117.229h125v140.04h-125V117.229z"/>
	<path fill="#83418D" d="M506.001,343.5v150h-250v-150c0-86.23,86.23-101.271,86.23-101.271h78.76
		C419.771,242.229,506.001,257.27,506.001,343.5z"/>
	<path fill="#BDA08C" d="M381.001,284.76c-29.98,0-37.5-41.26-37.5-41.26v-48.729h75V243.5
		C418.501,243.5,410.981,284.76,381.001,284.76z"/>
	<path fill="#E9CBB2" d="M456.001,97.26c0-63.77-150-41.26-150,0c0,8.74,0,50,0,58.74c0,41.26,33.74,75,75,75s75-33.74,75-75
		C456.001,147.26,456.001,106,456.001,97.26z"/>
	<path fill="#BD573B" d="M381.001,18.5c-47.51,0-112.5,33.74-112.5,212.5l50,18.75V143.5l87.5-50l37.5,37.5v118.75l50-31.25
		c0-66.26-2.49-187.5-82.52-187.5l-7.473-12.5H381.001z"/>
	<path fill="#E9CBB2" d="M381.001,293.5c-33.74,0-37.5-50-37.5-50s11.23,37.5,37.5,37.5s37.5-37.5,37.5-37.5
		S414.741,293.5,381.001,293.5z"/>
	<path fill="#73471D" d="M419.771,163.521c0,4.102-3.369,7.471-7.52,7.471c-4.152,0-7.52-3.369-7.52-7.471
		c0-4.15,3.367-7.521,7.52-7.521C416.401,156,419.771,159.369,419.771,163.521z"/>
	<path fill="#73471D" d="M357.271,162.25c0,4.149-3.369,7.521-7.52,7.521c-4.152,0-7.52-3.369-7.52-7.521s3.367-7.521,7.52-7.521
		C353.901,154.729,357.271,158.101,357.271,162.25z"/>
	<path fill="#CF8A36" d="M131,288.52c-39.99,0-37.5-45.02-37.5-45.02v-45.021h75V243.5C168.5,243.5,170.99,288.52,131,288.52z"/>
	<path fill="#D4983F" d="M218.5,149.75c0,10.353-8.397,18.75-18.75,18.75S181,160.103,181,149.75S189.397,131,199.75,131
		S218.5,139.397,218.5,149.75z"/>
	<path fill="#D4983F" d="M81,149.75c0,10.353-8.397,18.75-18.75,18.75s-18.75-8.397-18.75-18.75S51.897,131,62.25,131
		S81,139.397,81,149.75z"/>
	<path fill="#DAA858" d="M206,97.26c0-63.77-150-41.26-150,0c0,8.74,0,50,0,58.74c0,41.26,33.74,75,75,75s75-33.74,75-75
		C206,147.26,206,106,206,97.26z"/>
	<path fill="#424242" d="M131,18.5c-53.76,0-87.5,42.479-87.5,96.24c0,7.52,0,28.76,0,28.76l17.479,6.25V106l105.03-35.01
		L201.021,106v43.75l17.479-6.25c0,0,0-21.24,0-28.76c0-35.011-8.74-69.972-52.49-78.761L157.271,18.5H131z"/>
	<path fill="#73471D" d="M169.771,149.75c0,4.149-3.369,7.521-7.521,7.521s-7.521-3.369-7.521-7.521s3.369-7.521,7.521-7.521
		S169.771,145.601,169.771,149.75z"/>
	<path fill="#73471D" d="M107.271,149.75c0,4.149-3.369,7.521-7.521,7.521s-7.521-3.369-7.521-7.521s3.369-7.521,7.521-7.521
		S107.271,145.601,107.271,149.75z"/>
	<path fill="#41A095" d="M168.5,242.229c0,0-4.979,26.271-37.5,26.271s-37.5-26.271-37.5-26.271S6,257.27,6,343.5v150h250.001v-150
		C256.001,257.27,168.5,242.229,168.5,242.229z"/>
	<path fill="#CF8A36" d="M256.001,456C228.51,456,231,431,231,431v-35.01h50.001V431C281.001,431,283.491,456,256.001,456z"/>
	<path fill="#D4983F" d="M318.501,357.27c0,6.885-5.615,12.5-12.5,12.5s-12.5-5.615-12.5-12.5c0-6.934,5.615-12.5,12.5-12.5
		S318.501,350.336,318.501,357.27z"/>
	<path fill="#D4983F" d="M218.5,357.27c0,6.885-5.615,12.5-12.5,12.5s-12.5-5.615-12.5-12.5c0-6.934,5.615-12.5,12.5-12.5
		S218.5,350.336,218.5,357.27z"/>
	<path fill="#DAA858" d="M306.001,331c0-42.48-100.001-27.49-100.001,0c0,6.25,0,32.52,0,38.77c0,27.49,22.51,50,50.001,50
		c27.49,0,50-22.51,50-50C306.001,363.52,306.001,335.98,306.001,331z"/>
	<path fill="#BD573B" d="M256.001,269.77c-37.501,0-62.501,31.25-62.501,68.75c0,4.98,0,19.972,0,19.972l12.5,5.028v-31.25
		l75.001-25l25,25v31.25l12.5-5.028c0,0,0-14.99,0-19.972c0-25-6.25-50-37.5-56.25l-6.25-12.5H256.001z"/>
	<path fill="#73471D" d="M281.001,362.25c0,3.467-2.783,6.25-6.25,6.25s-6.25-2.783-6.25-6.25s2.783-6.25,6.25-6.25
		S281.001,358.783,281.001,362.25z"/>
	<path fill="#73471D" d="M243.5,362.25c0,3.467-2.783,6.25-6.25,6.25s-6.25-2.783-6.25-6.25s2.783-6.25,6.25-6.25
		S243.5,358.783,243.5,362.25z"/>
	<path fill="#DFA622" d="M281.001,422.26c0,0-3.76,21.24-25,21.24C234.76,443.5,231,422.26,231,422.26s-62.5,11.23-62.5,71.24
		h175.001C343.501,433.49,281.001,422.26,281.001,422.26z"/>
</g>
<g id="XMLID_2_">
	<g>
		<polygon fill="#EBC680" points="418.501,303.434 495.437,380.371 422.296,395.279 		"/>
		<polygon fill="#BD9B62" points="418.501,303.434 422.296,395.279 414.376,396.901 		"/>
		<polygon fill="#E5E5E3" points="418.501,303.434 414.376,396.901 398.802,400.07 396.048,413.624 302.165,419.77 		"/>
		<polygon fill="#DA9345" points="495.437,380.371 379.103,496.707 394.409,421.591 423.405,422.163 422.296,395.279 		"/>
		<polygon fill="#B97B35" points="422.296,395.279 423.405,422.163 394.409,421.591 396.048,413.624 413.698,412.456 
			414.376,396.901 		"/>
		<polygon fill="#E5E5E3" points="398.802,400.07 414.376,396.901 413.698,412.456 396.048,413.624 		"/>
		<polygon fill="#BD9B62" points="302.165,419.77 396.048,413.624 394.409,421.591 		"/>
		<polygon fill="#EBC680" points="302.165,419.77 394.409,421.591 379.103,496.707 		"/>
	</g>
	<g>
		<path fill="#222222" d="M379.103,500.35l-80.58-80.58l119.979-119.979l80.58,80.58L379.103,500.35z M305.808,419.77l73.295,73.294
			l112.691-112.692l-73.293-73.294L305.808,419.77z"/>
	</g>
</g>
</svg>
